…
To fix this, we pivot our data.

# Lengthening datasets
We do it by increasing the number of rows and decreasing the number of columns, solving those common problems of data values in the variable name.

``` r
# 1) Understand what each observation mean
billboard
```

```
## # A tibble: 317 × 79
##    artist      track date.entered   wk1   wk2   wk3   wk4   wk5
##    <chr>       <chr> <date>       <dbl> <dbl> <dbl> <dbl> <dbl>
##  1 2 Pac       Baby… 2000-02-26      87    82    72    77    87
##  2 2Ge+her     The … 2000-09-02      91    87    92    NA    NA
##  3 3 Doors Do… Kryp… 2000-04-08      81    70    68    67    66
##  4 3 Doors Do… Loser 2000-10-21      76    76    72    69    67
##  5 504 Boyz    Wobb… 2000-04-15      57    34    25    17    17
##  6 98^0        Give… 2000-08-19      51    39    34    26    26
##  7 A*Teens     Danc… 2000-07-08      97    97    96    95   100
##  8 Aaliyah     I Do… 2000-01-29      84    62    51    41    38
##  9 Aaliyah     Try … 2000-03-18      59    53    38    28    21
## 10 Adams, Yol… Open… 2000-08-26      76    76    74    69    68
## # ℹ 307 more rows
## # ℹ 71 more variables: wk6 <dbl>, wk7 <dbl>, wk8 <dbl>,
## #   wk9 <dbl>, wk10 <dbl>, wk11 <dbl>, wk12 <dbl>, wk13 <dbl>,
## #   wk14 <dbl>, wk15 <dbl>, wk16 <dbl>, wk17 <dbl>,
## #   wk18 <dbl>, wk19 <dbl>, wk20 <dbl>, wk21 <dbl>,
## #   wk22 <dbl>, wk23 <dbl>, wk24 <dbl>, wk25 <dbl>,
## #   wk26 <dbl>, wk27 <dbl>, wk28 <dbl>, wk29 <dbl>, …
```

``` r
# 2) We need a format of the data set where each row is an observation
billboard |> 
  pivot_longer(
    cols = starts_with("wk"), 
    names_to = "week", 
    values_to = "rank",
    values_drop_na = TRUE
  )
```

```
## # A tibble: 5,307 × 5
##    artist  track                   date.entered week   rank
##    <chr>   <chr>                   <date>       <chr> <dbl>
##  1 2 Pac   Baby Don't Cry (Keep... 2000-02-26   wk1      87
##  2 2 Pac   Baby Don't Cry (Keep... 2000-02-26   wk2      82
##  3 2 Pac   Baby Don't Cry (Keep... 2000-02-26   wk3      72
##  4 2 Pac   Baby Don't Cry (Keep... 2000-02-26   wk4      77
##  5 2 Pac   Baby Don't Cry (Keep... 2000-02-26   wk5      87
##  6 2 Pac   Baby Don't Cry (Keep... 2000-02-26   wk6      94
##  7 2 Pac   Baby Don't Cry (Keep... 2000-02-26   wk7      99
##  8 2Ge+her The Hardest Part Of ... 2000-09-02   wk1      91
##  9 2Ge+her The Hardest Part Of ... 2000-09-02   wk2      87
## 10 2Ge+her The Hardest Part Of ... 2000-09-02   wk3      92
## # ℹ 5,297 more rows
```
# Widening datasets

``` r
cms_patient_experience
```

```
## # A tibble: 500 × 5
##    org_pac_id org_nm          measure_cd measure_title prf_rate
##    <chr>      <chr>           <chr>      <chr>            <dbl>
##  1 0446157747 USC CARE MEDIC… CAHPS_GRP… CAHPS for MI…       63
##  2 0446157747 USC CARE MEDIC… CAHPS_GRP… CAHPS for MI…       87
##  3 0446157747 USC CARE MEDIC… CAHPS_GRP… CAHPS for MI…       86
##  4 0446157747 USC CARE MEDIC… CAHPS_GRP… CAHPS for MI…       57
##  5 0446157747 USC CARE MEDIC… CAHPS_GRP… CAHPS for MI…       85
##  6 0446157747 USC CARE MEDIC… CAHPS_GRP… CAHPS for MI…       24
##  7 0446162697 ASSOCIATION OF… CAHPS_GRP… CAHPS for MI…       59
##  8 0446162697 ASSOCIATION OF… CAHPS_GRP… CAHPS for MI…       85
##  9 0446162697 ASSOCIATION OF… CAHPS_GRP… CAHPS for MI…       83
## 10 0446162697 ASSOCIATION OF… CAHPS_GRP… CAHPS for MI…       63
## # ℹ 490 more rows
```
…
``` r
cms_patient_experience |> 
  pivot_wider(
    id_cols = starts_with("org"),
    names_from = measure_cd,
    values_from = prf_rate
  )
```

```
## # A tibble: 95 × 8
##    org_pac_id org_nm        CAHPS_GRP_1 CAHPS_GRP_2 CAHPS_GRP_3
##    <chr>      <chr>               <dbl>       <dbl>       <dbl>
##  1 0446157747 USC CARE MED…          63          87          86
##  2 0446162697 ASSOCIATION …          59          85          83
##  3 0547164295 BEAVER MEDIC…          49          NA          75
##  4 0749333730 CAPE PHYSICI…          67          84          85
##  5 0840104360 ALLIANCE PHY…          66          87          87
##  6 0840109864 REX HOSPITAL…          73          87          84
##  7 0840513552 SCL HEALTH M…          58          83          76
##  8 0941545784 GRITMAN MEDI…          46          86          81
##  9 1052612785 COMMUNITY ME…          65          84          80
## 10 1254237779 OUR LADY OF …          61          NA          NA
## # ℹ 85 more rows
## # ℹ 3 more variables: CAHPS_GRP_5 <dbl>, CAHPS_GRP_8 <dbl>,
## #   CAHPS_GRP_12 <dbl>
```
…
